…
## What is mean total number of steps taken per day?


```r
prob2 <- actve_no_na |> group_by(date) |> 
    summarise(mean = mean(steps),
              median = median(steps))
prob2
```

```
## # A tibble: 53 × 3
##    date         mean median
##    <date>      <dbl>  <dbl>
##  1 2012-10-02  0.438      0
##  2 2012-10-03 39.4        0
##  3 2012-10-04 42.1        0
##  4 2012-10-05 46.2        0
##  5 2012-10-06 53.5        0
##  6 2012-10-07 38.2        0
##  7 2012-10-09 44.5        0
##  8 2012-10-10 34.4        0
##  9 2012-10-11 35.8        0
## 10 2012-10-12 60.4        0
## # ℹ 43 more rows
```
…
```r
prob6 <- prob4 |> group_by(date) |> 
    summarise(mean = mean(steps),
              median = median(steps))
prob6
```

```
## # A tibble: 61 × 3
##    date         mean median
##    <date>      <dbl>  <dbl>
##  1 2012-10-01 15.5        0
##  2 2012-10-02  0.438      0
##  3 2012-10-03 39.4        0
##  4 2012-10-04 42.1        0
##  5 2012-10-05 46.2        0
##  6 2012-10-06 53.5        0
##  7 2012-10-07 38.2        0
##  8 2012-10-08 15.5        0
##  9 2012-10-09 44.5        0
## 10 2012-10-10 34.4        0
## # ℹ 51 more rows
```
…
